{
    "prepare_queue": {
        "installed": [],
        "uninstalled": []
    },
    "config_munge": {
        "files": {}
    },
    "installed_plugins": {
        "cordova-plugin-device": {
            "PACKAGE_NAME": "com.lucasteeb.vertretungsplan"
        },
        "cordova-plugin-splashscreen": {
            "PACKAGE_NAME": "com.lucasteeb.vertretungsplan"
        },
        "cordova-plugin-statusbar": {
            "PACKAGE_NAME": "com.lucasteeb.vertretungsplan"
        },
        "cordova-plugin-whitelist": {
            "PACKAGE_NAME": "com.lucasteeb.vertretungsplan"
        },
        "ionic-plugin-keyboard": {
            "PACKAGE_NAME": "com.lucasteeb.vertretungsplan"
        },
        "phonegap-plugin-push": {
            "SENDER_ID": "755412640729",
            "PACKAGE_NAME": "com.lucasteeb.vertretungsplan"
        },
        "cordova-plugin-console": {
            "PACKAGE_NAME": "com.lucasteeb.vertretungsplan"
        }
    },
    "dependent_plugins": {}
}